…
    ##      line           station_name          ada         
    ##  Length:465         Length:465         Mode :logical  
    ##  Class :character   Class :character   FALSE:381      
    ##  Mode  :character   Mode  :character   TRUE :84

``` r
# There are 465 distinct stations, and 84 of them are ADA compliant.
# proportion of station antrances/exits without vending allow entrance
filter(transit, vending == FALSE & entry == TRUE)
```

    ## # A tibble: 69 x 19
    ##   line  station_name   lat  long route1 route2 route3 route4 route5 route6
    ##   <chr> <chr>        <dbl> <dbl> <chr>  <chr>  <chr>  <chr>  <chr>  <chr> 
    ## 1 4 Av… 9th St        40.7 -74.0 F      G      R      <NA>   <NA>   <NA>  
    ## 2 6 Av… 7th Av        40.7 -74.0 F      <NA>   <NA>   <NA>   <NA>   <NA>  
    ## 3 6 Av… 7th Av        40.7 -74.0 F      <NA>   <NA>   <NA>   <NA>   <NA>  
    ## 4 6 Av… 7th Av        40.7 -74.0 F      <NA>   <NA>   <NA>   <NA>   <NA>  
    ## 5 6 Av… 7th Av        40.7 -74.0 F      <NA>   <NA>   <NA>   <NA>   <NA>  
    ## # ... with 64 more rows, and 9 more variables: route7 <chr>, route8 <chr>,
    ## #   route9 <chr>, route10 <chr>, route11 <chr>, entrance_type <chr>,
    ## #   entry <lgl>, vending <lgl>, ada <lgl>
…
    ## [1] 0.0369379

``` r
# tidying data cont.
transit_tidy <- gather(transit, key = route, value = train, route1:route11) 
transit_tidy <- separate(transit_tidy, route, into = c('remove', 'route'), sep = -1) %>%
  select(-remove)
transit_tidy_d <- distinct(transit_tidy, line, station_name, ada, train)
filter(transit_tidy_d, train == 'A')
```

    ## # A tibble: 60 x 4
    ##   line            station_name                  ada   train
    ##   <chr>           <chr>                         <lgl> <chr>
    ## 1 42nd St Shuttle Times Square                  FALSE A    
    ## 2 8 Avenue        125th St                      FALSE A    
    ## 3 8 Avenue        145th St                      FALSE A    
    ## 4 8 Avenue        14th St                       TRUE  A    
    ## 5 8 Avenue        168th St - Washington Heights TRUE  A    
    ## # ... with 55 more rows
…
# Find distinct locations and states 
distinct(brfss_tidy, county)
```

    ## # A tibble: 404 x 1
    ##   county                     
    ##   <chr>                      
    ## 1 AK - Anchorage Municipality
    ## 2 AL - Jefferson County      
    ## 3 AR - Pulaski County        
    ## 4 AZ - Maricopa County       
    ## 5 AZ - Pima County           
    ## # ... with 399 more rows

``` r
distinct(brfss_tidy, state)
```

    ## # A tibble: 51 x 1
    ##   state
    ##   <chr>
    ## 1 AK   
    ## 2 AL   
    ## 3 AR   
    ## 4 AZ   
    ## 5 CA   
    ## # ... with 46 more rows
…
